{
  "departments": [
    {
      "id": 1,
      "name": "Pijncentrum",
      "description": "Het team van het multidisciplinair pijncentrum behandelt bijna alle types van pijn: acute en chronische pijn, behalve hoofdpijn, wat op de dienst neurologie wordt behandeld. Het doel van ons pijncentrum is enerzijds patiënten te helpen om hun pijn te verminderen.",
      "photopath": "pijncentrum.jpg",
      "rooms": [
        {
          "id": 1,
          "roomnumber": "0.01",
          "facilities": [
            "sanitair",
            "salon"
          ],
          "patientname": "Jean-Pierre Van Rossem",
          "alarmGedrukt": false,
          "position": {
            "x": 50,
            "y": 75,
            "width": 300,
            "height": 250
          }
        },
        {
          "id": 2,
          "roomnumber": "0.02",
          "facilities": [
            "salon",
            "kinderverzorging"
          ],
          "patientname": "Jan Janssens",
          "alarmGedrukt": false,
          "position": {
            "x": 50,
            "y": 400,
            "width": 300,
            "height": 250
          }
        },
        {
          "id": 4,
          "roomnumber": "0.04",
          "facilities": [
            "salon",
            "sanitair",
            "kinderverzorging"
          ],
          "patientname": "Seppe Peeters",
          "alarmGedrukt": false,
          "position": {
            "x": 50,
            "y": 750,
            "width": 400,
            "height": 250
          }
        },
        {
          "id": 5,
          "roomnumber": "0.05",
          "facilities": [
            "salon"
          ],
          "patientname": "Jef Goosens",
          "alarmGedrukt": false,
          "position": {
            "x": 350,
            "y": 75,
            "width": 200,
            "height": 250
          }
        },
        {
          "id": 6,
          "roomnumber": "0.06",
          "facilities": [
            "salon",
            "sanitair",
            "kinderverzorging"
          ],
          "patientname": "Tim Peetes",
          "alarmGedrukt": false,
          "position": {
            "x": 350,
            "y": 300,
            "width": 400,
            "height": 250
          }
        },
        {
          "id": 7,
          "roomnumber": "0.07",
          "facilities": [
            "salon",
            "sanitair",
            "kinderverzorging"
          ],
          "patientname": "",
          "alarmGedrukt": false,
          "position": {
            "x": 350,
            "y": 750,
            "width": 400,
            "height": 250
          }
        },
        {
          "id": 8,
          "roomnumber": "0.08",
          "facilities": [
            "sanitair"
          ],
          "patientname": "",
          "alarmGedrukt": false,
          "position": {
            "x": 625,
            "y": 500,
            "width": 200,
            "height": 250
          }
        },
        {
          "id": 9,
          "roomnumber": "0.09",
          "facilities": [
            "sanitair"
          ],
          "patientname": "Dieter Geets",
          "alarmGedrukt": false,
          "position": {
            "x": 625,
            "y": 750,
            "width": 400,
            "height": 250
          }
        }
      ]
    },
    {
      "id": 2,
      "name": "Cardiologie",
      "photopath": "cardiologie.jpg",
      "description": "De dienst Cardiologie – Hartbewaking (CCU) – Vaat- en thoraxheelkunde staat in voor de behandeling en verzorging van patiënten met hartziekten. Ook patiënten die een vaat- of thoraxingreep ondergingen, verblijven op deze dienst. Het verpleegkundig team tracht samen met de cardiologen en de vaatchirurgen een kwalitatief hoogstaande en patiëntgerichte zorg aan te bieden.",
      "rooms": [
        {
          "id": 1,
          "roomnumber": "1.01",
          "facilities": [
            "salon",
            "sanitair"
          ],
          "patientname": "Bella Hadid",
          "alarmGedrukt": false,
          "position": {
            "x": 75,
            "y": 75,
            "width": 300,
            "height": 250
          }
        },
        {
          "id": 2,
          "roomnumber": "1.02",
          "facilities": [
            "salon",
            "sanitair"
          ],
          "patientname": "Kate Upton",
          "alarmGedrukt": false,
          "position": {
            "x": 75,
            "y": 400,
            "width": 300,
            "height": 250
          }
        },
        {
          "id": 4,
          "roomnumber": "1.04",
          "facilities": [
            "salon"
          ],
          "patientname": "Gigi Hadid",
          "alarmGedrukt": false,
          "position": {
            "x": 75,
            "y": 790,
            "width": 400,
            "height": 250
          }
        },
        {
          "id": 5,
          "roomnumber": "1.05",
          "facilities": [
            "salon"
          ],
          "patientname": "Kendall Jenner",
          "alarmGedrukt": false,
          "position": {
            "x": 415,
            "y": 75,
            "width": 300,
            "height": 250
          }
        },
        {
          "id": 6,
          "roomnumber": "1.06",
          "facilities": [
            "salon"
          ],
          "patientname": "Kylie Jenner",
          "alarmGedrukt": false,
          "position": {
            "x": 415,
            "y": 400,
            "width": 300,
            "height": 250
          }
        },
        {
          "id": 7,
          "roomnumber": "1.07",
          "facilities": [
            "salon"
          ],
          "patientname": "Joan Smalls",
          "alarmGedrukt": false,
          "position": {
            "x": 415,
            "y": 790,
            "width": 400,
            "height": 250
          }
        }
      ]
    },
    {
      "id": 3,
      "name": "Neurologie",
      "photopath": "neurologie.jpg",
      "description": "Neurologie houdt zich bezig met de diagnostiek en behandeling van ziekten van de hersenen, de perifere zenuwen en het ruggenmerg. Ook voor de behandeling van spierziekten komt u vaak bij een neuroloog terecht.",
      "rooms": [
        {
          "id": 1,
          "roomnumber": "1.11",
          "facilities": [
            "sanitair"
          ],
          "patientname": "Dieter Geets"
        }
      ]
    },
    {
      "id": 4,
      "name": "Spoedgevallen",
      "photopath": "spoedgevallen.jpg",
      "description": "Voor alle dringende medische problemen staat de spoedgevallendienst van het UZA voor u klaar. We beschikken over alle nodige faciliteiten om patiënten in de meest kritische toestand op te vangen. We trachten de wachttijden zo kort mogelijk te houden, maar patiënten met levensbedreigende en zeer ernstige klachten zullen steeds voorrang krijgen. ",
      "rooms": [
        {
          "id": 1,
          "roomnumber": "3.07",
          "facilities": [
            "sanitair"
          ],
          "patientname": ""
        }
      ]
    },
    {
      "id": 5,
      "name": "Endocrinologie",
      "photopath": "endocrinologie.jpg",
      "description": "Endocrinologie houdt zich bezig met de klieren die hormonen uitscheiden in de bloedbaan. Hormonen zijn signaalstoffen die de functie van andere organen beïnvloeden. Endocriene ziekten zijn het gevolg van een tekort of een teveel aan hormonen.",
      "rooms": [
        {
          "id": 1,
          "roomnumber": "6.12",
          "facilities": [
            "sanitair"
          ],
          "patientname": ""
        }
      ]
    },
    {
      "id": 6,
      "name": "Nucleaire geneeskunde",
      "photopath": "nucleaireGeneeskunde.jpg",
      "description": "De dienst nucleaire geneeskunde noemen we soms ook wel de “isotopen-” of “radio-isotopen-“ afdeling, omdat er onderzoeken en behandelingen worden verricht die gebruik maken van radioactieve stoffen.",
      "rooms": [
        {
          "id": 1,
          "roomnumber": "4.22",
          "facilities": [
            "sanitair"
          ],
          "patientname": ""
        }
      ]
    },
    {
      "id": 7,
      "name": "Pneumologie",
      "photopath": "pneumologie.jpg",
      "description": "Onder het specialisme pneumologie vallen aandoeningen van de longen en de luchtwegen. De pneumloog behandelt onder andere patiënten met astma en COPD (chronische bronchitis en longemfyseem), infecties aan de luchtwegen (zoals longontsteking en tuberculose), longembolie (verstopping in de longslagader), slaapapneu.",
      "rooms": [
        {
          "id": 1,
          "roomnumber": "2.44",
          "facilities": [
            "sanitair"
          ],
          "patientname": ""
        }
      ]
    },
    {
      "id": 8,
      "name": "Reumatologie",
      "photopath": "reumatologie.jpg",
      "description": "Reuma is een verzamelnaam voor problemen aan het houdings- en bewegingsapparaat die geen traumatische oorzaak hebben. De dienst reumatologie van AZ Turnhout onderzoekt en behandelt deze acute (plotse) en chronische (blijvende) problemen.",
      "rooms": [
        {
          "id": 1,
          "roomnumber": "6.01",
          "facilities": [
            "sanitair"
          ],
          "patientname": ""
        }
      ]
    }
  ],
  "persons": [
    {
      "id": 1,
      "name": "Jean-Pierre Van Rossem",
      "photopath": "01.jpg",
      "department": "Pijncentrum",
      "roomnumber": "0.01",
      "hospitalisationdate": "2020-12-14",
      "hospitalisationreason": "afkickverschijnselen",
      "doctor": "Dr. Bonen",
      "vegetarian": true,
      "comments": [
        {
          "id": 2,
          "content": "slim"
        },
        {
          "id": 1,
          "content": "Allergisch aan noten"
        }
      ],
      "heartbeat": 131,
      "bloodpressure": 105,
      "actions": [
        {
          "id": 2,
          "type": "omkeren",
          "description": "Pas op! Weegt veel",
          "timestamp": "2019-12-31 18:25",
          "done": true
        },
        {
          "id": 3,
          "type": "eten",
          "description": "Waygu a5",
          "timestamp": "2020-01-06 18:00",
          "done": false
        }
      ]
    },
    {
      "id": 2,
      "name": "Jan Janssens",
      "photopath": "02.jpg",
      "department": "Pijncentrum",
      "roomnumber": "0.02",
      "hospitalisationdate": "2020-12-15",
      "hospitalisationreason": "werk ongeluk",
      "doctor": "Dr. Bonen",
      "vegetarian": false,
      "comments": [
        {
          "id": 2,
          "content": "Kan gevaarlijk zijn"
        },
        {
          "id": 1,
          "content": "Heeft soms woedeaanvallen"
        }
      ],
      "heartbeat": 98,
      "bloodpressure": 101,
      "actions": [
        {
          "id": 1,
          "type": "medicatie",
          "description": "Pijnstiller 50mg",
          "timestamp": "2020-12-15 20:15",
          "done": true
        },
        {
          "id": 2,
          "type": "medicatie",
          "description": "Pijnstiller 50mg",
          "timestamp": "2019-12-16 20:15",
          "done": true
        },
        {
          "id": 3,
          "type": "eten",
          "description": "Lactose",
          "timestamp": "2020-01-06 01:39",
          "done": false
        }
      ]
    },
    {
      "id": 3,
      "name": "Tim Peetes",
      "photopath": "03.jpg",
      "department": "Pijncentrum",
      "roomnumber": "0.06",
      "hospitalisationdate": "2020-12-15",
      "hospitalisationreason": "hart kloppingen",
      "doctor": "Dr. Maes",
      "vegetarian": true,
      "comments": [
        {
          "id": 1,
          "content": "Allergisch aan noten"
        }
      ],
      "heartbeat": 99,
      "bloodpressure": 94,
      "actions": [
        {
          "id": 1,
          "type": "eten",
          "description": "Veel eten",
          "timestamp": "2020-01-04 11:03",
          "done": false
        },
        {
          "id": 2,
          "type": "eten",
          "description": "stoofvlees",
          "timestamp": "2019-12-30 19:13",
          "done": true
        }
      ]
    },
    {
      "id": 4,
      "name": "Seppe Peeters",
      "photopath": "04.jpg",
      "department": "Pijncentrum",
      "roomnumber": "0.04",
      "hospitalisationdate": "2020-12-15",
      "hospitalisationreason": "hart kloppingen",
      "doctor": "Dr. Maes",
      "vegetarian": true,
      "comments": [
        {
          "id": 1,
          "content": "Veel afegvallen"
        }
      ],
      "heartbeat": 111,
      "bloodpressure": 94,
      "actions": [
        {
          "id": 1,
          "type": "infuus",
          "description": "relaxerend middel",
          "timestamp": "2019-12-29 12:15",
          "done": true
        },
        {
          "id": 2,
          "type": "wassen",
          "description": "Stinkt",
          "timestamp": "2020-01-04 17:00",
          "done": false
        }
      ]
    },
    {
      "id": 5,
      "name": "Jef Goosens",
      "photopath": "05.jpg",
      "department": "Pijncentrum",
      "roomnumber": "0.05",
      "hospitalisationdate": "2020-12-15",
      "hospitalisationreason": "hart kloppingen",
      "doctor": "Dr. Maes",
      "vegetarian": false,
      "comments": [
        {
          "id": 1,
          "content": "Allergisch aan noten"
        }
      ],
      "heartbeat": 97,
      "bloodpressure": 98,
      "actions": [
        {
          "id": 1,
          "type": "infuus",
          "description": "relaxerend middel",
          "timestamp": "2019-12-28 12:15",
          "done": true
        }
      ]
    },
    {
      "id": 8,
      "name": "Dieter Geets",
      "photopath": "06.jpg",
      "department": "Pijncentrum",
      "roomnumber": "0.09",
      "hospitalisationdate": "2020-12-15",
      "hospitalisationreason": "Gebroken voer",
      "doctor": "Dr. Bonen",
      "vegetarian": true,
      "comments": [
        {
          "id": 1,
          "content": "Allergisch aan alles dat niet uit de frituur komt"
        }
      ],
      "heartbeat": 110,
      "bloodpressure": 103,
      "actions": []
    },
    {
      "id": 9,
      "name": "Bella Hadid",
      "photopath": "07.jpg",
      "department": "Cardiolgie",
      "roomnumber": "1.01",
      "hospitalisationdate": "2020-01-04",
      "hospitalisationreason": "Gevallen uit de hemel",
      "doctor": "Dr. Epstein",
      "vegetarian": false,
      "comments": [
        {
          "id": 1,
          "content": "Aardig veel botox"
        }
      ],
      "heartbeat": 110,
      "bloodpressure": 103,
      "actions": []
    },
    {
      "id": 10,
      "name": "Kate Upton",
      "photopath": "08.jpg",
      "department": "Cardiolgie",
      "roomnumber": "1.02",
      "hospitalisationdate": "2020-01-04",
      "hospitalisationreason": "Gevallen uit de hemel",
      "doctor": "Dr. Epstein",
      "vegetarian": false,
      "comments": [
        {
          "id": 1,
          "content": "Aardig veel botox"
        }
      ],
      "heartbeat": 110,
      "bloodpressure": 103,
      "actions": []
    },
    {
      "id": 12,
      "name": "Gigi Hadid",
      "photopath": "10.jpg",
      "department": "Cardiolgie",
      "roomnumber": "1.04",
      "hospitalisationdate": "2020-01-04",
      "hospitalisationreason": "Gevallen uit de hemel",
      "doctor": "Dr. Epstein",
      "vegetarian": false,
      "comments": [
        {
          "id": 1,
          "content": "Aardig veel botox"
        }
      ],
      "heartbeat": 110,
      "bloodpressure": 103,
      "actions": []
    },
    {
      "id": 13,
      "name": "Kendall Jenner",
      "photopath": "11.jpg",
      "department": "Cardiolgie",
      "roomnumber": "1.05",
      "hospitalisationdate": "2020-01-04",
      "hospitalisationreason": "Gevallen uit de hemel",
      "doctor": "Dr. Epstein",
      "vegetarian": false,
      "comments": [
        {
          "id": 1,
          "content": "Aardig veel botox"
        }
      ],
      "heartbeat": 110,
      "bloodpressure": 103,
      "actions": []
    },
    {
      "id": 14,
      "name": "Kylie Jenner",
      "photopath": "12.jpg",
      "department": "Cardiolgie",
      "roomnumber": "1.06",
      "hospitalisationdate": "2020-01-04",
      "hospitalisationreason": "Gevallen uit de hemel",
      "doctor": "Dr. Epstein",
      "vegetarian": false,
      "comments": [
        {
          "id": 1,
          "content": "Aardig veel botox"
        }
      ],
      "heartbeat": 110,
      "bloodpressure": 103,
      "actions": []
    },
    {
      "id": 15,
      "name": "Joan Smalls",
      "photopath": "13.jpg",
      "department": "Cardiolgie",
      "roomnumber": "1.07",
      "hospitalisationdate": "2020-01-04",
      "hospitalisationreason": "Gevallen uit de hemel",
      "doctor": "Dr. Epstein",
      "vegetarian": false,
      "comments": [
        {
          "id": 1,
          "content": "Aardig veel botox"
        }
      ],
      "heartbeat": 110,
      "bloodpressure": 103,
      "actions": []
    }
  ]
}